{
  "openapi": "3.0.3",
  "info": {
    "title": "ReqRes API",
    "description": "Complete API specification for ReqRes - Deploy backends in 30 seconds with our template library. This API provides access to user management, custom endpoints, template deployment, and data exploration features.",
    "version": "1.0.0",
    "contact": {
      "name": "ReqRes Support",
      "url": "https://reqres.in",
      "email": "hello@reqres.in"
    },
    "license": {
      "name": "MIT",
      "url": "https://opensource.org/licenses/MIT"
    }
  },
  "servers": [
    {
      "url": "https://reqres.in",
      "description": "Production server"
    },
    {
      "url": "http://localhost:8000",
      "description": "Development server"
    }
  ],
  "paths": {
    "/api/users": {
      "get": {
        "summary": "Get users",
        "description": "Retrieve a list of users with pagination support",
        "operationId": "getUsers",
        "tags": [
          "Users"
        ],
        "parameters": [
          {
            "name": "page",
            "in": "query",
            "description": "Page number for pagination",
            "required": false,
            "schema": {
              "type": "integer",
              "default": 1,
              "minimum": 1
            }
          },
          {
            "name": "per_page",
            "in": "query",
            "description": "Number of users per page",
            "required": false,
            "schema": {
              "type": "integer",
              "default": 6,
              "minimum": 1,
              "maximum": 100
            }
          }
        ],
        "responses": {
          "200": {
            "description": "Successful response",
            "content": {
              "application/json": {
                "schema": {
                  "$ref": "#/components/schemas/UsersResponse"
                },
                "examples": {
                  "default": {
                    "summary": "Default response",
                    "value": {
                      "page": 1,
                      "per_page": 6,
                      "total": 12,
                      "total_pages": 2,
                      "data": [
                        {
                          "id": 1,
                          "email": "george.bluth@reqres.in",
                          "first_name": "George",
                          "last_name": "Bluth",
                          "avatar": "https://reqres.in/img/faces/1-image.jpg"
                        }
                      ]
                    }
                  }
                }
              }
            }
          },
          "400": {
            "description": "Bad request",
            "content": {
              "application/json": {
                "schema": {
                  "$ref": "#/components/schemas/ErrorResponse"
                }
              }
            }
          }
        }
      }
    },
    "/api/users/{id}": {
      "get": {
        "summary": "Get user by ID",
        "description": "Retrieve a specific user by their ID",
        "operationId": "getUserById",
        "tags": [
          "Users"
        ],
        "parameters": [
          {
            "name": "id",
            "in": "path",
            "description": "User ID",
            "required": true,
            "schema": {
              "type": "integer",
              "minimum": 1
            }
          }
        ],
        "responses": {
          "200": {
            "description": "Successful response",
            "content": {
              "application/json": {
                "schema": {
                  "$ref": "#/components/schemas/UserResponse"
                }
              }
            }
          },
          "404": {
            "description": "User not found",
            "content": {
              "application/json": {
                "schema": {
                  "$ref": "#/components/schemas/ErrorResponse"
                }
              }
            }
          }
        }
      }
    },
    "/api/register": {
      "post": {
        "summary": "Register user",
        "description": "Register a new user account",
        "operationId": "registerUser",
        "tags": [
          "Authentication"
        ],
        "requestBody": {
          "required": true,
          "content": {
            "application/json": {
              "schema": {
                "$ref": "#/components/schemas/RegisterRequest"
              },
              "examples": {
                "default": {
                  "summary": "Registration example",
                  "value": {
                    "email": "eve.holt@reqres.in",
                    "password": "pistol"
                  }
                }
              }
            }
          }
        },
        "responses": {
          "200": {
            "description": "Successful registration",
            "content": {
              "application/json": {
                "schema": {
                  "$ref": "#/components/schemas/RegisterResponse"
                }
              }
            }
          },
          "400": {
            "description": "Bad request - missing email or password",
            "content": {
              "application/json": {
                "schema": {
                  "$ref": "#/components/schemas/ErrorResponse"
                }
              }
            }
          }
        }
      }
    },
    "/api/login": {
      "post": {
        "summary": "Login user",
        "description": "Authenticate user and get access token",
        "operationId": "loginUser",
        "tags": [
          "Authentication"
        ],
        "requestBody": {
          "required": true,
          "content": {
            "application/json": {
              "schema": {
                "$ref": "#/components/schemas/LoginRequest"
              }
            }
          }
        },
        "responses": {
          "200": {
            "description": "Successful login",
            "content": {
              "application/json": {
                "schema": {
                  "$ref": "#/components/schemas/LoginResponse"
                }
              }
            }
          },
          "400": {
            "description": "Bad request - missing email or password",
            "content": {
              "application/json": {
                "schema": {
                  "$ref": "#/components/schemas/ErrorResponse"
                }
              }
            }
          }
        }
      }
    },
    "/templates": {
      "get": {
        "summary": "Get templates",
        "description": "Retrieve available backend templates with filtering options",
        "operationId": "getTemplates",
        "tags": [
          "Templates"
        ],
        "parameters": [
          {
            "name": "category",
            "in": "query",
            "description": "Filter by template category",
            "required": false,
            "schema": {
              "type": "string",
              "enum": [
                "ecommerce",
                "social",
                "productivity",
                "content",
                "general"
              ]
            }
          },
          {
            "name": "featured",
            "in": "query",
            "description": "Filter for featured templates only",
            "required": false,
            "schema": {
              "type": "boolean"
            }
          },
          {
            "name": "limit",
            "in": "query",
            "description": "Maximum number of templates to return",
            "required": false,
            "schema": {
              "type": "integer",
              "default": 50,
              "maximum": 100
            }
          }
        ],
        "responses": {
          "200": {
            "description": "Successful response",
            "content": {
              "application/json": {
                "schema": {
                  "$ref": "#/components/schemas/TemplatesResponse"
                }
              }
            }
          }
        }
      }
    },
    "/templates/{id}": {
      "get": {
        "summary": "Get template by ID",
        "description": "Retrieve a specific template with full details",
        "operationId": "getTemplateById",
        "tags": [
          "Templates"
        ],
        "parameters": [
          {
            "name": "id",
            "in": "path",
            "description": "Template ID",
            "required": true,
            "schema": {
              "type": "integer",
              "minimum": 1
            }
          }
        ],
        "responses": {
          "200": {
            "description": "Successful response",
            "content": {
              "application/json": {
                "schema": {
                  "$ref": "#/components/schemas/Template"
                }
              }
            }
          },
          "404": {
            "description": "Template not found",
            "content": {
              "application/json": {
                "schema": {
                  "$ref": "#/components/schemas/ErrorResponse"
                }
              }
            }
          }
        }
      }
    },
    "/api/custom/{path}": {
      "get": {
        "summary": "Execute custom endpoint",
        "description": "Execute a custom endpoint with GET method",
        "operationId": "executeCustomEndpointGet",
        "tags": [
          "Custom Endpoints"
        ],
        "parameters": [
          {
            "name": "path",
            "in": "path",
            "description": "Custom endpoint path",
            "required": true,
            "schema": {
              "type": "string"
            }
          }
        ],
        "security": [
          {
            "ApiKeyAuth": []
          }
        ],
        "responses": {
          "200": {
            "description": "Successful response",
            "content": {
              "application/json": {
                "schema": {
                  "type": "object",
                  "description": "Custom response data"
                }
              }
            }
          },
          "401": {
            "description": "Unauthorized - invalid API key",
            "content": {
              "application/json": {
                "schema": {
                  "$ref": "#/components/schemas/ErrorResponse"
                }
              }
            }
          },
          "404": {
            "description": "Endpoint not found",
            "content": {
              "application/json": {
                "schema": {
                  "$ref": "#/components/schemas/ErrorResponse"
                }
              }
            }
          }
        }
      },
      "post": {
        "summary": "Execute custom endpoint",
        "description": "Execute a custom endpoint with POST method",
        "operationId": "executeCustomEndpointPost",
        "tags": [
          "Custom Endpoints"
        ],
        "parameters": [
          {
            "name": "path",
            "in": "path",
            "description": "Custom endpoint path",
            "required": true,
            "schema": {
              "type": "string"
            }
          }
        ],
        "requestBody": {
          "required": false,
          "content": {
            "application/json": {
              "schema": {
                "type": "object",
                "description": "Request body data"
              }
            }
          }
        },
        "security": [
          {
            "ApiKeyAuth": []
          }
        ],
        "responses": {
          "200": {
            "description": "Successful response",
            "content": {
              "application/json": {
                "schema": {
                  "type": "object",
                  "description": "Custom response data"
                }
              }
            }
          }
        }
      }
    }
  },
  "components": {
    "securitySchemes": {
      "ApiKeyAuth": {
        "type": "apiKey",
        "in": "header",
        "name": "x-api-key"
      },
      "BearerAuth": {
        "type": "http",
        "scheme": "bearer",
        "bearerFormat": "JWT"
      }
    },
    "schemas": {
      "User": {
        "type": "object",
        "properties": {
          "id": {
            "type": "integer",
            "description": "User ID"
          },
          "email": {
            "type": "string",
            "format": "email",
            "description": "User email address"
          },
          "first_name": {
            "type": "string",
            "description": "User's first name"
          },
          "last_name": {
            "type": "string",
            "description": "User's last name"
          },
          "avatar": {
            "type": "string",
            "format": "uri",
            "description": "URL to user's avatar image"
          }
        },
        "required": [
          "id",
          "email",
          "first_name",
          "last_name",
          "avatar"
        ]
      },
      "UsersResponse": {
        "type": "object",
        "properties": {
          "page": {
            "type": "integer",
            "description": "Current page number"
          },
          "per_page": {
            "type": "integer",
            "description": "Number of users per page"
          },
          "total": {
            "type": "integer",
            "description": "Total number of users"
          },
          "total_pages": {
            "type": "integer",
            "description": "Total number of pages"
          },
          "data": {
            "type": "array",
            "items": {
              "$ref": "#/components/schemas/User"
            }
          }
        },
        "required": [
          "page",
          "per_page",
          "total",
          "total_pages",
          "data"
        ]
      },
      "UserResponse": {
        "type": "object",
        "properties": {
          "data": {
            "$ref": "#/components/schemas/User"
          }
        },
        "required": [
          "data"
        ]
      },
      "RegisterRequest": {
        "type": "object",
        "properties": {
          "email": {
            "type": "string",
            "format": "email",
            "description": "User email address"
          },
          "password": {
            "type": "string",
            "minLength": 1,
            "description": "User password"
          }
        },
        "required": [
          "email",
          "password"
        ]
      },
      "RegisterResponse": {
        "type": "object",
        "properties": {
          "id": {
            "type": "integer",
            "description": "User ID"
          },
          "token": {
            "type": "string",
            "description": "Authentication token"
          }
        },
        "required": [
          "id",
          "token"
        ]
      },
      "LoginRequest": {
        "type": "object",
        "schema": {
          "$ref": "#/components/schemas/RegisterRequest"
        }
      },
      "LoginResponse": {
        "type": "object",
        "properties": {
          "token": {
            "type": "string",
            "description": "Authentication token"
          }
        },
        "required": [
          "token"
        ]
      },
      "Template": {
        "type": "object",
        "properties": {
          "id": {
            "type": "integer",
            "description": "Template ID"
          },
          "name": {
            "type": "string",
            "description": "Template name"
          },
          "description": {
            "type": "string",
            "description": "Template description"
          },
          "category": {
            "type": "string",
            "enum": [
              "ecommerce",
              "social",
              "productivity",
              "content",
              "general"
            ],
            "description": "Template category"
          },
          "icon": {
            "type": "string",
            "description": "Template icon emoji"
          },
          "is_featured": {
            "type": "boolean",
            "description": "Whether template is featured"
          },
          "config": {
            "type": "object",
            "properties": {
              "difficulty": {
                "type": "string",
                "enum": [
                  "beginner",
                  "intermediate",
                  "advanced"
                ],
                "description": "Template difficulty level"
              },
              "features": {
                "type": "array",
                "items": {
                  "type": "string"
                },
                "description": "List of features included in template"
              }
            }
          },
          "endpoints": {
            "type": "array",
            "items": {
              "$ref": "#/components/schemas/Endpoint"
            },
            "description": "API endpoints included in template"
          }
        },
        "required": [
          "id",
          "name",
          "description",
          "category",
          "icon"
        ]
      },
      "Endpoint": {
        "type": "object",
        "properties": {
          "name": {
            "type": "string",
            "description": "Endpoint name"
          },
          "path": {
            "type": "string",
            "description": "Endpoint path"
          },
          "method": {
            "type": "string",
            "enum": [
              "GET",
              "POST",
              "PUT",
              "PATCH",
              "DELETE"
            ],
            "description": "HTTP method"
          },
          "response": {
            "type": "object",
            "description": "Response template"
          },
          "statusCode": {
            "type": "integer",
            "description": "HTTP status code"
          }
        },
        "required": [
          "name",
          "path",
          "method"
        ]
      },
      "TemplatesResponse": {
        "type": "object",
        "properties": {
          "templates": {
            "type": "array",
            "items": {
              "$ref": "#/components/schemas/Template"
            }
          }
        },
        "required": [
          "templates"
        ]
      },
      "ErrorResponse": {
        "type": "object",
        "properties": {
          "error": {
            "type": "string",
            "description": "Error message"
          }
        },
        "required": [
          "error"
        ]
      }
    }
  },
  "tags": [
    {
      "name": "Users",
      "description": "User management operations"
    },
    {
      "name": "Authentication",
      "description": "User registration and login"
    },
    {
      "name": "Templates",
      "description": "Backend template operations"
    },
    {
      "name": "Custom Endpoints",
      "description": "Custom endpoint execution"
    }
  ]
}